{
    "success": true,
    "message": "Admin wallet transactions retrieved successfully",
    "wallet": {
        "balance": 3489.3,
        "totalCredits": 3693.3,
        "totalDebits": 204,
        "currency": {
            "code": "INR",
            "name": "Indian Rupee",
            "symbol": "₹"
        }
    },
    "data": [
        {
            "currency": {
                "code": "INR",
                "name": "Indian Rupee",
                "symbol": "₹"
            },
            "metadata": {
                "initiatedBy": "system",
                "notes": "Admin commission from pay at restaurant order"
            },
            "_id": "69ccf28cdceb3edd32b4f8c2",
            "walletId": "69cb68be383aec691f556e6a",
            "walletType": "AdminWallet",
            "transactionType": "credit",
            "affectsBalance": true,
            "amount": 78.3,
            "source": "commission",
            "orderId": {
                "_id": "69ccee78dceb3edd32b4f55d",
                "orderNo": 59
            },
            "restaurantId": {
                "basicInfo": {
                    "restaurantName": "Thakkar's Restro"
                },
                "contactDetails": {
                    "city": "Amreli",
                    "state": "Gujarat",
                    "country": "India"
                },
                "_id": "69009336cda4b52998ffb143"
            },
            "commissionPercentage": 15,
            "commissionAmount": 78.3,
            "description": "Commission received - Order #59 (Pay at Restaurant)",
            "status": "completed",
            "createdAt": "2026-04-01T10:25:16.388Z",
            "updatedAt": "2026-04-01T10:25:16.388Z",
            "__v": 0
        },
        {
            "currency": {
                "code": "INR",
                "name": "Indian Rupee",
                "symbol": "₹"
            },
            "metadata": {
                "initiatedBy": "system",
                "notes": "Testing mode - Direct wallet credit"
            },
            "_id": "69ccef80d09d70a3e69cb4b7",
            "walletId": "69cb68be383aec691f556e6a",
            "walletType": "AdminWallet",
            "transactionType": "credit",
            "affectsBalance": true,
            "amount": 584,
            "source": "order_payment",
            "paymentId": "69ccef80d09d70a3e69cb4b4",
            "orderId": {
                "_id": "69ccef80d09d70a3e69cb4ae",
                "orderNo": 60
            },
            "restaurantId": {
                "basicInfo": {
                    "restaurantName": "Thakkar's Restro"
                },
                "contactDetails": {
                    "city": "Amreli",
                    "state": "Gujarat",
                    "country": "India"
                },
                "_id": "69009336cda4b52998ffb143"
            },
            "description": "Order payment received - Order #60",
            "status": "completed",
            "createdAt": "2026-04-01T10:12:16.573Z",
            "updatedAt": "2026-04-01T10:12:16.573Z",
            "__v": 0
        },
        {
            "currency": {
                "code": "INR",
                "name": "Indian Rupee",
                "symbol": "₹"
            },
            "metadata": {
                "initiatedBy": "system",
                "notes": "Testing mode - Direct wallet credit"
            },
            "_id": "69cced9ddceb3edd32b4f22a",
            "walletId": "69cb68be383aec691f556e6a",
            "walletType": "AdminWallet",
            "transactionType": "credit",
            "affectsBalance": true,
            "amount": 260,
            "source": "order_payment",
            "paymentId": "69cced9ddceb3edd32b4f227",
            "orderId": {
                "_id": "69cced9ddceb3edd32b4f222",
                "orderNo": 57
            },
            "restaurantId": {
                "basicInfo": {
                    "restaurantName": "Thakkar's Restro"
                },
                "contactDetails": {
                    "city": "Amreli",
                    "state": "Gujarat",
                    "country": "India"
                },
                "_id": "69009336cda4b52998ffb143"
            },
            "description": "Order payment received - Order #57",
            "status": "completed",
            "createdAt": "2026-04-01T10:04:13.268Z",
            "updatedAt": "2026-04-01T10:04:13.268Z",
            "__v": 0
        },
        {
            "currency": {
                "code": "INR",
                "name": "Indian Rupee",
                "symbol": "₹"
            },
            "metadata": {
                "initiatedBy": "system",
                "notes": "Admin commission from pay at restaurant order"
            },
            "_id": "69cced4cdceb3edd32b4f0d5",
            "walletId": "69cb68be383aec691f556e6a",
            "walletType": "AdminWallet",
            "transactionType": "credit",
            "affectsBalance": true,
            "amount": 39,
            "source": "commission",
            "orderId": {
                "_id": "69cced16dceb3edd32b4f061",
                "orderNo": 56
            },
            "restaurantId": {
                "basicInfo": {
                    "restaurantName": "Thakkar's Restro"
                },
                "contactDetails": {
                    "city": "Amreli",
                    "state": "Gujarat",
                    "country": "India"
                },
                "_id": "69009336cda4b52998ffb143"
            },
            "commissionPercentage": 15,
            "commissionAmount": 39,
            "description": "Commission received - Order #56 (Pay at Restaurant)",
            "status": "completed",
            "createdAt": "2026-04-01T10:02:52.544Z",
            "updatedAt": "2026-04-01T10:02:52.544Z",
            "__v": 0
        },
        {
            "currency": {
                "code": "INR",
                "name": "Indian Rupee",
                "symbol": "₹"
            },
            "metadata": {
                "initiatedBy": "system",
                "notes": "Testing mode - Direct wallet credit"
            },
            "_id": "69ccec57dceb3edd32b4eeaa",
            "walletId": "69cb68be383aec691f556e6a",
            "walletType": "AdminWallet",
            "transactionType": "credit",
            "affectsBalance": true,
            "amount": 312,
            "source": "order_payment",
            "paymentId": "69ccec57dceb3edd32b4eea7",
            "orderId": {
                "_id": "69ccec57dceb3edd32b4eea2",
                "orderNo": 55
            },
            "restaurantId": {
                "basicInfo": {
                    "restaurantName": "Thakkar's Restro"
                },
                "contactDetails": {
                    "city": "Amreli",
                    "state": "Gujarat",
                    "country": "India"
                },
                "_id": "69009336cda4b52998ffb143"
            },
            "description": "Order payment received - Order #55",
            "status": "completed",
            "createdAt": "2026-04-01T09:58:47.873Z",
            "updatedAt": "2026-04-01T09:58:47.873Z",
            "__v": 0
        },
        {
            "currency": {
                "code": "INR",
                "name": "Indian Rupee",
                "symbol": "₹"
            },
            "metadata": {
                "initiatedBy": "system",
                "notes": "Testing mode - Direct wallet credit"
            },
            "_id": "69ccc94365a043e961a5be4a",
            "walletId": "69cb68be383aec691f556e6a",
            "walletType": "AdminWallet",
            "transactionType": "credit",
            "affectsBalance": true,
            "amount": 1382,
            "source": "order_payment",
            "paymentId": "69ccc94365a043e961a5be47",
            "orderId": {
                "_id": "69ccc94365a043e961a5be41",
                "orderNo": 53
            },
            "restaurantId": {
                "basicInfo": {
                    "restaurantName": "Thakkar's Restro"
                },
                "contactDetails": {
                    "city": "Amreli",
                    "state": "Gujarat",
                    "country": "India"
                },
                "_id": "69009336cda4b52998ffb143"
            },
            "description": "Order payment received - Order #53",
            "status": "completed",
            "createdAt": "2026-04-01T07:29:07.866Z",
            "updatedAt": "2026-04-01T07:29:07.866Z",
            "__v": 0
        },
        {
            "currency": {
                "code": "INR",
                "name": "Indian Rupee",
                "symbol": "₹"
            },
            "metadata": {
                "initiatedBy": "system",
                "notes": "Testing mode - Direct wallet credit"
            },
            "_id": "69ccbf371868856c56833e28",
            "walletId": "69cb68be383aec691f556e6a",
            "walletType": "AdminWallet",
            "transactionType": "credit",
            "affectsBalance": true,
            "amount": 690,
            "source": "order_payment",
            "paymentId": "69ccbf371868856c56833e25",
            "orderId": {
                "_id": "69ccbf371868856c56833e1e",
                "orderNo": 52
            },
            "restaurantId": {
                "basicInfo": {
                    "restaurantName": "Thakkar's Restro"
                },
                "contactDetails": {
                    "city": "Amreli",
                    "state": "Gujarat",
                    "country": "India"
                },
                "_id": "69009336cda4b52998ffb143"
            },
            "description": "Order payment received - Order #52",
            "status": "completed",
            "createdAt": "2026-04-01T06:46:15.701Z",
            "updatedAt": "2026-04-01T06:46:15.701Z",
            "__v": 0
        },
        {
            "currency": {
                "code": "INR",
                "name": "Indian Rupee",
                "symbol": "₹"
            },
            "metadata": {
                "initiatedBy": "system",
                "notes": "Admin commission from pay at restaurant order"
            },
            "_id": "69ccaed024929c5d6fd87af1",
            "walletId": "69cb68be383aec691f556e6a",
            "walletType": "AdminWallet",
            "transactionType": "credit",
            "affectsBalance": true,
            "amount": 36,
            "source": "commission",
            "orderId": {
                "_id": "69ccae4424929c5d6fd87a0a",
                "orderNo": 51
            },
            "restaurantId": {
                "basicInfo": {
                    "restaurantName": "Thakkar's Restro"
                },
                "contactDetails": {
                    "city": "Amreli",
                    "state": "Gujarat",
                    "country": "India"
                },
                "_id": "69009336cda4b52998ffb143"
            },
            "commissionPercentage": 15,
            "commissionAmount": 36,
            "description": "Commission received - Order #51 (Pay at Restaurant)",
            "status": "completed",
            "createdAt": "2026-04-01T05:36:16.168Z",
            "updatedAt": "2026-04-01T05:36:16.168Z",
            "__v": 0
        },
        {
            "currency": {
                "code": "INR",
                "name": "Indian Rupee",
                "symbol": "₹"
            },
            "metadata": {
                "initiatedBy": "system",
                "notes": "Admin commission from pay at restaurant order"
            },
            "_id": "69cbd936df93dab27fe15ba4",
            "walletId": "69cb68be383aec691f556e6a",
            "walletType": "AdminWallet",
            "transactionType": "credit",
            "affectsBalance": true,
            "amount": 36,
            "source": "commission",
            "orderId": {
                "_id": "69cbd926df93dab27fe15b3e",
                "orderNo": 49
            },
            "restaurantId": {
                "basicInfo": {
                    "restaurantName": "Thakkar's Restro"
                },
                "contactDetails": {
                    "city": "Amreli",
                    "state": "Gujarat",
                    "country": "India"
                },
                "_id": "69009336cda4b52998ffb143"
            },
            "commissionPercentage": 15,
            "commissionAmount": 36,
            "description": "Commission received - Order #49 (Pay at Restaurant)",
            "status": "completed",
            "createdAt": "2026-03-31T14:24:54.989Z",
            "updatedAt": "2026-03-31T14:24:54.989Z",
            "__v": 0
        },
        {
            "currency": {
                "code": "INR",
                "name": "Indian Rupee",
                "symbol": "₹"
            },
            "metadata": {
                "initiatedBy": "system",
                "notes": "Admin commission from pay at restaurant order"
            },
            "_id": "69cbd7e2d6c06ac61e56e368",
            "walletId": "69cb68be383aec691f556e6a",
            "walletType": "AdminWallet",
            "transactionType": "credit",
            "affectsBalance": true,
            "amount": 36,
            "source": "commission",
            "orderId": {
                "_id": "69cbd7d2d6c06ac61e56e2d7",
                "orderNo": 48
            },
            "restaurantId": {
                "basicInfo": {
                    "restaurantName": "Thakkar's Restro"
                },
                "contactDetails": {
                    "city": "Amreli",
                    "state": "Gujarat",
                    "country": "India"
                },
                "_id": "69009336cda4b52998ffb143"
            },
            "commissionPercentage": 15,
            "commissionAmount": 36,
            "description": "Commission received - Order #48 (Pay at Restaurant)",
            "status": "completed",
            "createdAt": "2026-03-31T14:19:14.994Z",
            "updatedAt": "2026-03-31T14:19:14.994Z",
            "__v": 0
        }
    ],
    "pagination": {
        "page": 1,
        "limit": 10,
        "totalCount": 13,
        "totalPages": 2
    }
}